+-----------------------------------------------+
| tileset.png                                   |
| characters.png                                |
|                                               |
| ---                                           |
|                                               |
| License: CC0                                  |
| Source: http://kenney.itch.io/kenney-donation |
|                                               |
+-----------------------------------------------+
